(module ESP12-breakout_board (layer F.Cu) (tedit 59D4EA99)
  (fp_text reference REF** (at -7.62 1.27) (layer F.SilkS)
    (effects (font (size 1 1) (thickness 0.15)))
  )
  (fp_text value ESP12-breakout_board (at -1.27 -1.27) (layer F.Fab)
    (effects (font (size 1 1) (thickness 0.15)))
  )
  (fp_line (start 12.7 -21.59) (end 15.24 -21.59) (layer F.SilkS) (width 0.15))
  (fp_line (start 15.24 -21.59) (end 15.24 -1.27) (layer F.SilkS) (width 0.15))
  (fp_line (start 15.24 -1.27) (end 12.7 -1.27) (layer F.SilkS) (width 0.15))
  (fp_line (start 12.7 -1.27) (end 12.7 -21.59) (layer F.SilkS) (width 0.15))
  (fp_line (start -15.24 -21.59) (end -12.7 -21.59) (layer F.SilkS) (width 0.15))
  (fp_line (start -12.7 -21.59) (end -12.7 -1.27) (layer F.SilkS) (width 0.15))
  (fp_line (start -12.7 -1.27) (end -15.24 -1.27) (layer F.SilkS) (width 0.15))
  (fp_line (start -15.24 -1.27) (end -15.24 -21.59) (layer F.SilkS) (width 0.15))
  (pad 1 thru_hole circle (at -13.97 -20.32) (size 1.524 1.524) (drill 0.762) (layers *.Cu *.Mask F.SilkS))
  (pad 2 thru_hole circle (at -13.97 -17.78) (size 1.524 1.524) (drill 0.762) (layers *.Cu *.Mask F.SilkS))
  (pad 3 thru_hole circle (at -13.97 -15.24) (size 1.524 1.524) (drill 0.762) (layers *.Cu *.Mask F.SilkS))
  (pad 4 thru_hole circle (at -13.97 -12.7) (size 1.524 1.524) (drill 0.762) (layers *.Cu *.Mask F.SilkS))
  (pad 5 thru_hole circle (at -13.97 -10.16) (size 1.524 1.524) (drill 0.762) (layers *.Cu *.Mask F.SilkS))
  (pad 6 thru_hole circle (at -13.97 -7.62) (size 1.524 1.524) (drill 0.762) (layers *.Cu *.Mask F.SilkS))
  (pad 7 thru_hole circle (at -13.97 -5.08) (size 1.524 1.524) (drill 0.762) (layers *.Cu *.Mask F.SilkS))
  (pad 8 thru_hole circle (at -13.97 -2.54) (size 1.524 1.524) (drill 0.762) (layers *.Cu *.Mask F.SilkS))
  (pad 16 thru_hole circle (at 13.97 -20.32) (size 1.524 1.524) (drill 0.762) (layers *.Cu *.Mask F.SilkS))
  (pad 15 thru_hole circle (at 13.97 -17.78) (size 1.524 1.524) (drill 0.762) (layers *.Cu *.Mask F.SilkS))
  (pad 14 thru_hole circle (at 13.97 -15.24) (size 1.524 1.524) (drill 0.762) (layers *.Cu *.Mask F.SilkS))
  (pad 13 thru_hole circle (at 13.97 -12.7) (size 1.524 1.524) (drill 0.762) (layers *.Cu *.Mask F.SilkS))
  (pad 12 thru_hole circle (at 13.97 -10.16) (size 1.524 1.524) (drill 0.762) (layers *.Cu *.Mask F.SilkS))
  (pad 11 thru_hole circle (at 13.97 -7.62) (size 1.524 1.524) (drill 0.762) (layers *.Cu *.Mask F.SilkS))
  (pad 10 thru_hole circle (at 13.97 -5.08) (size 1.524 1.524) (drill 0.762) (layers *.Cu *.Mask F.SilkS))
  (pad 9 thru_hole circle (at 13.97 -2.54) (size 1.524 1.524) (drill 0.762) (layers *.Cu *.Mask F.SilkS))
)
